<svg xmlns="http://www.w3.org/2000/svg" xmlns:xlink="http://www.w3.org/1999/xlink" viewBox="-1968 1427 20 20">
  <defs>
    <style>
      .cls-1 {
        fill: none;
      }

      .cls-2 {
        fill-rule: evenodd;
        opacity: 0.54;
        fill: url(#linear-gradient);
      }
    </style>
    <linearGradient id="linear-gradient" x1="0.5" x2="0.5" y2="1" gradientUnits="objectBoundingBox">
      <stop offset="0" stop-color="#c74793"/>
      <stop offset="1" stop-color="#3aa8b8"/>
    </linearGradient>
  </defs>
  <g id="Promos" transform="translate(-1968 1427)">
    <rect id="rectangle" class="cls-1" width="20" height="20" transform="translate(0 0)"/>
    <path id="path" class="cls-2" d="M4.917,6.167a1.25,1.25,0,1,1,1.25-1.25,1.25,1.25,0,0,1-1.25,1.25M9.5,2H2V9.5a1.667,1.667,0,0,0,.489,1.179l7.5,7.5a1.666,1.666,0,0,0,2.357,0l5.828-5.829a1.665,1.665,0,0,0,0-2.358l-7.5-7.5A1.673,1.673,0,0,0,9.5,2" transform="translate(-0.333 -0.333)"/>
  </g>
</svg>
